^C:\USERS\СЕРГЕЙ\SOURCE\REPOS\MASSIVE\MAIN.CPP
C:\USERS\Сергей\SOURCE\REPOS\MASSIVE\DEBUG\VC142.PDB
C:\USERS\Сергей\SOURCE\REPOS\MASSIVE\DEBUG\VC142.IDB
C:\USERS\Сергей\SOURCE\REPOS\MASSIVE\DEBUG\MAIN.OBJ
