^C:\USERS\СЕРГЕЙ\SOURCE\REPOS\MASSIVE\DEBUG\MAIN.OBJ
C:\USERS\Сергей\SOURCE\REPOS\MASSIVE\DEBUG\MASSIVE.EXE
C:\USERS\Сергей\SOURCE\REPOS\MASSIVE\DEBUG\MASSIVE.ILK
C:\USERS\СЕРГЕЙ\SOURCE\REPOS\MASSIVE\DEBUG\MASSIVE.PDB
